State,Source,Official/Unofficial,Total Ballots Counted (Estimate),Vote for Highest Office (President),VEP Turnout Rate,Voting-Eligible Population (VEP),Voting-Age Population (VAP),% Non-citizen,Prison,Probation,Parole,Total Ineligible Felon,Overseas Eligible,State Abv
United States,,,"15,88,35,004",,66.40%,"23,92,47,182","25,76,05,088",7.80%,"14,61,074","19,62,811","6,16,440","32,94,457","49,71,025",
Alabama,https://www2.alabamavotes.gov/electionnight/statewideResultsByContest.aspx?ecode=1001090,Unofficial,"23,06,587","22,97,295",62.60%,"36,83,055","38,37,540",2.30%,"25,898","50,997","10,266","67,782",,AL
Alaska,https://www.elections.alaska.gov/results/20GENR/index.php,,"3,67,000",,69.80%,"5,25,568","5,51,117",3.40%,"4,293","2,074","1,348","6,927",,AK
Arizona,https://results.arizona.vote/#/featured/18/0,,"34,00,000",,65.50%,"51,89,000","57,98,473",8.90%,"38,520","76,844","7,536","93,699",,AZ
Arkansas,https://results.enr.clarityelections.com/AR/106124/web.264614/#/summary,Unofficial,"12,12,030","12,06,697",55.50%,"21,82,375","23,31,171",3.60%,"17,510","36,719","24,698","64,974",,AR
California,https://electionresults.sos.ca.gov/,Unofficial,"1,68,00,000",,64.70%,"2,59,62,648","3,07,83,255",15.00%,"1,04,730",0,"1,02,586","2,07,316",,CA
Colorado,https://results.enr.clarityelections.com/CO/105975/web.264614/#/summary,,"32,95,000",,76.40%,"43,13,054","45,95,504",5.70%,"18,905",0,0,"18,905",,CO
Connecticut,,,"18,50,000",,71.10%,"26,03,327","28,39,560",7.70%,"13,268",0,"4,452","17,720",,CT
Delaware,https://elections.delaware.gov/results/html/index.shtml?electionId=GE2020,Unofficial,"5,07,805","5,02,392",70.50%,"7,20,531","7,80,822",5.80%,"5,874","14,176",350,"15,013",,DE
District of Columbia,https://electionresults.dcboe.org/election_results/2020-General-Election,,"3,50,000",,64.70%,"5,40,685","5,82,065",7.10%,0,0,0,0,,DC
Florida,https://floridaelectionwatch.gov/CountyReportingStatus,,"1,11,50,000",,71.70%,"1,55,51,739","1,75,43,341",10.10%,"91,674","2,05,033","4,345","2,23,139",,FL
Georgia,https://results.enr.clarityelections.com/GA/105369/web.264614/,,"50,25,000",,68.10%,"73,83,562","82,55,108",6.60%,"50,930","4,16,771","20,426","3,29,754",,GA
Hawaii,https://elections.hawaii.gov/wp-content/results/histatewide.pdf,Unofficial,"5,79,165","5,73,854",57.50%,"10,07,920","11,14,466",9.10%,"5,007",0,0,"5,007",,HI
Idaho,https://www.livevoterturnout.com/Idaho/LiveResults/1/en/Index_113.html,Unofficial,"8,75,000","8,67,258",67.70%,"12,92,701","13,84,683",4.10%,"8,378","34,392","5,267","34,968",,ID
Illinois,,,"61,00,000",,67.60%,"90,27,082","98,32,749",7.80%,"38,464",0,0,"38,464",,IL
Indiana,https://enr.indianavoters.in.gov/site/index.html,,"30,70,000",,61.40%,"50,00,007","52,14,546",3.60%,"26,302",0,0,"26,302",,IN
Iowa,https://electionresults.iowa.gov/IA/106279/web.264614/#/summary,,"18,25,000",,78.60%,"23,21,131","24,39,743",3.50%,"9,216","29,137","6,652","33,933",,IA
Kansas,https://ent.sos.ks.gov/kssos_ent.html,Unofficial,"13,40,000","13,33,513",64.20%,"20,87,946","22,23,238",4.90%,"9,882","16,455","5,438","25,522",,KS
Kentucky,https://results.enr.clarityelections.com/KY/106379/web.264614/#/summary,Unofficial,"21,50,951","21,34,993",64.90%,"33,12,250","34,79,257",2.80%,"23,280","46,967","15,881","68,281",,KY
Louisiana,https://voterportal.sos.la.gov/graphical,Unofficial,"21,55,000","21,47,395",63.90%,"33,73,932","35,57,594",2.80%,"32,267","35,025","29,321","83,304",,LA
Maine,,,"8,60,000",,79.20%,"10,85,285","11,04,489",1.70%,0,0,0,0,,ME
Maryland,https://elections.maryland.gov/county_status_page_root.html,,"30,50,000",,70.70%,"43,13,416","47,29,400",8.40%,"18,165",0,0,"18,165",,MD
Massachusetts,,,"37,25,000",,73.40%,"50,72,901","55,66,452",8.70%,"7,772",0,0,"7,772",,MA
Michigan,https://mielections.us/election/results/2020GEN_CENR.html,Unofficial,"55,59,186","55,19,348",73.60%,"75,50,147","78,70,864",3.60%,"38,183",0,0,"38,183",,MI
Minnesota,https://electionresults.sos.state.mn.us/20201103,Unofficial,"32,90,000","32,78,405",79.90%,"41,18,462","43,78,737",4.10%,"9,712","1,00,076","7,381","79,140",,MN
Mississippi,,,"13,30,000",,60.40%,"22,01,950","22,79,412",1.40%,"19,244","27,294","9,866","46,032",,MS
Missouri,https://enr.sos.mo.gov/,Unofficial,"30,50,000","30,12,436",66.30%,"46,03,060","47,94,796",2.40%,"30,148","43,871","19,251","76,599",,MO
Montana,https://electionresults.mt.gov/,Unofficial,"6,12,055","6,03,635",73.10%,"8,37,298","8,51,663",1.20%,"3,754",0,0,"3,754",,MT
Nebraska,https://electionresults.nebraska.gov/,Unofficial,"9,48,852","9,35,232",68.60%,"13,83,551","14,69,878",4.80%,"5,263","14,894",958,"15,455",,NE
Nevada,,,"13,70,000",,63.60%,"21,53,915","24,50,946",11.60%,"12,399",0,0,"12,399",,NV
New Hampshire,https://sos.nh.gov/elections/elections/election-results/2020/general-election/,Unofficial,"8,14,092","8,03,833",75.40%,"10,79,434","11,15,916",3.00%,"2,635",0,0,"2,635",,NH
New Jersey,,,"44,95,000",,73.00%,"61,58,999","69,52,008",11.10%,"18,099",0,0,"18,099",,NJ
New Mexico,https://nmresults.azurewebsites.net/Default.aspx,Unofficial,"9,23,612","9,19,377",61.00%,"15,15,355","16,34,037",6.20%,"6,887","12,090","2,805","17,188",,NM
New York,,,"89,30,000",,65.30%,"1,36,70,596","1,53,72,655",10.50%,"42,408",0,"45,192","87,600",,NY
North Carolina,https://www.ncsbe.gov/results-data/election-results,,"56,00,000",,72.20%,"77,59,051","83,28,642",5.70%,"33,640","80,068","14,215","97,497",,NC
North Dakota,https://results.sos.nd.gov/Default.aspx?map=Cty,Unofficial,"3,65,000","3,57,916",64.60%,"5,65,143","5,84,610",3.00%,"1,679",0,0,"1,679",,ND
Ohio,https://liveresults.ohiosos.gov/,,"61,00,000",,68.90%,"88,59,167","91,44,626",2.60%,"49,892",0,0,"49,892",,OH
Oklahoma,https://www.ok.gov/elections/Election_Info/2020_November_General_Election.html,OFFICIAL,"15,65,000","15,60,699",55.00%,"28,45,835","30,31,792",4.30%,"27,558","41,562","1,780","55,106",,OK
Oregon,https://results.oregonvotes.gov/Default.aspx,Unofficial,"24,04,642","23,34,666",75.20%,"31,96,425","34,05,863",5.70%,"13,795",0,0,"13,795",,OR
Pennsylvania,https://www.electionreturns.pa.gov/,,"69,00,000",,70.50%,"97,81,976","1,01,86,170",3.50%,"44,148",0,0,"44,148",,PA
Rhode Island,,,"5,20,000",,65.00%,"7,99,642","8,57,507",6.40%,"2,766",0,0,"2,766",,RI
South Carolina,https://www.enr-scvotes.org/SC/106502/Web02-state.264691/#/?undefined,Unofficial,"25,32,995","25,13,314",64.50%,"39,26,305","41,16,633",3.60%,"18,587","31,975","4,980","43,392",,SC
South Dakota,http://electionresults.sd.gov/Default.aspx,Unofficial,"4,27,529","4,22,609",66.00%,"6,48,104","6,75,016",2.40%,"3,867","5,989","3,201","10,781",,SD
Tennessee,https://elections.tn.gov/results.php,Unofficial,"30,60,000","30,45,401",59.70%,"51,24,867","53,91,220",3.60%,"26,107","61,253","10,842","74,926",,TN
Texas,https://results.texas-election.com/races,Unofficial,"1,13,00,000","1,12,31,799",60.20%,"1,87,84,280","2,20,58,260",12.60%,"1,54,913","3,68,167","1,09,213","4,92,390",,TX
Utah,https://electionresults.utah.gov/elections/,,"14,50,000",,66.20%,"21,91,487","23,43,384",6.20%,"6,287",0,0,"6,287",,UT
Vermont,https://electionresults.vermont.gov/Index.html#/federal,,"3,70,000",,74.00%,"4,99,884","5,11,637",2.30%,0,0,0,0,,VT
Virginia,https://results.elections.virginia.gov/vaelections/2020%20November%20General/Site/Presidential.html,Unofficial,"44,25,000","44,09,913",71.40%,"61,96,071","67,27,440",6.80%,"35,743","63,111","1,860","76,732",,VA
Washington,https://results.vote.wa.gov/results/20201103/turnout.html,,"41,00,000",,75.40%,"54,37,844","60,70,046",9.10%,"18,777","76,672","12,222","78,536",,WA
West Virginia,,,"7,95,000",,57.00%,"13,94,028","14,22,098",0.90%,"6,757","6,593","4,287","15,132",,WV
Wisconsin,,,"33,25,000",,76.10%,"43,68,530","45,86,746",3.20%,"23,574","42,909","21,015","71,193",,WI
Wyoming,https://sos.wyo.gov/Elections/Docs/2020/2020GeneralResults.aspx,OFFICIAL,"2,78,503","2,76,765",64.60%,"4,31,364","4,47,915",2.20%,"2,488","5,383",934,"6,759",,WY
